Multivariate Relationships with Absolute Deviation (w/o PC)
…
The following table lists some summary statistics of the correlation distribution ordered by largest absolute minimum correlation:

## # A tibble: 45 x 6
##    corr                      min    max median  mean     sd
##    <fct>                   <dbl>  <dbl>  <dbl> <dbl>  <dbl>
##  1 se_x_w - se_y_w          0.66  0.95    0.80  0.79 0.082 
##  2 se_y_w - rel_weight     -0.55 -0.31   -0.46 -0.46 0.079 
##  3 se_x_w - rel_weight     -0.53 -0.32   -0.36 -0.40 0.073 
##  4 rhos_max - fungis_max    0.47  0.49    0.48  0.48 0.0049
##  5 se_x_w - rel_n_w        -0.46 -0.34   -0.39 -0.39 0.043 
##  6 fungis_max - rel_weight -0.38 -0.29   -0.29 -0.31 0.029 
##  7 se_y_w - rel_n_w        -0.37 -0.32   -0.36 -0.36 0.017 
##  8 rhos_max - sd_emp_inv    0.34  0.35    0.35  0.35 0.0032
##  9 rel_n_w - p_fit_x       -0.33  0.074  -0.27 -0.21 0.14  
## 10 rhos_max - p_hetero     -0.31 -0.29   -0.30 -0.30 0.0049
## # ... with 35 more rows

The following table lists the same correlation distribution summary statistics ordered by largest absolute maximum correlation:

## # A tibble: 45 x 6
##    corr                     min   max median  mean     sd
##    <fct>                  <dbl> <dbl>  <dbl> <dbl>  <dbl>
##  1 se_x_w - se_y_w        0.66   0.95   0.80  0.79 0.082 
##  2 se_y_w - sd_emp_inv    0.074  0.53   0.32  0.32 0.19  
##  3 se_x_w - sd_emp_inv    0.15   0.50   0.42  0.36 0.14  
##  4 rhos_max - fungis_max  0.47   0.49   0.48  0.48 0.0049
##  5 rhos_max - sd_emp_inv  0.34   0.35   0.35  0.35 0.0032
##  6 rel_weight - rel_n_w   0.30   0.35   0.35  0.34 0.017 
##  7 se_x_w - rel_n_w      -0.46  -0.34  -0.39 -0.39 0.043 
##  8 se_y_w - rel_n_w      -0.37  -0.32  -0.36 -0.36 0.017 
##  9 se_x_w - rel_weight   -0.53  -0.32  -0.36 -0.40 0.073 
## 10 se_y_w - rel_weight   -0.55  -0.31  -0.46 -0.46 0.079 
## # ... with 35 more rows

The following table lists the same correlation distribution summary statistics ordered by largest absolute median:

## # A tibble: 45 x 6
##    corr                       min    max median  mean     sd
##    <fct>                    <dbl>  <dbl>  <dbl> <dbl>  <dbl>
##  1 se_x_w - se_y_w          0.66   0.95    0.80  0.79 0.082 
##  2 rhos_max - fungis_max    0.47   0.49    0.48  0.48 0.0049
##  3 se_y_w - rel_weight     -0.55  -0.31   -0.46 -0.46 0.079 
##  4 se_x_w - sd_emp_inv      0.15   0.50    0.42  0.36 0.14  
##  5 se_x_w - rel_n_w        -0.46  -0.34   -0.39 -0.39 0.043 
##  6 se_x_w - rel_weight     -0.53  -0.32   -0.36 -0.40 0.073 
##  7 se_y_w - rel_n_w        -0.37  -0.32   -0.36 -0.36 0.017 
##  8 rhos_max - sd_emp_inv    0.34   0.35    0.35  0.35 0.0032
##  9 rel_weight - rel_n_w     0.30   0.35    0.35  0.34 0.017 
## 10 se_y_w - sd_emp_inv      0.074  0.53    0.32  0.32 0.19  
## 11 rhos_max - p_hetero     -0.31  -0.29   -0.30 -0.30 0.0049
## 12 fungis_max - rel_weight -0.38  -0.29   -0.29 -0.31 0.029 
## 13 rel_n_w - p_fit_x       -0.33   0.074  -0.27 -0.21 0.14  
## 14 sd_emp_inv - p_hetero   -0.25  -0.23   -0.23 -0.23 0.0070
## 15 rel_weight - p_hetero    0.19   0.22    0.20  0.20 0.010 
## 16 y - rel_weight           0.19   0.20    0.19  0.19 0.0042
## 17 se_y_w - y              -0.25  -0.062  -0.17 -0.17 0.074 
## 18 rel_n_w - p_hetero      -0.17  -0.15   -0.16 -0.16 0.0068
## 19 rhos_max - rel_n_w       0.13   0.14    0.14  0.14 0.0032
## 20 se_x_w - p_fit_x        -0.015  0.18    0.12  0.10 0.069 
## # ... with 25 more rows
…
The following table lists the correlation ordered by largest absolute minimum:

## # A tibble: 45 x 6
##    corr                    min   max median  mean     sd
##    <fct>                 <dbl> <dbl>  <dbl> <dbl>  <dbl>
##  1 se_x_w - se_y_w        0.66  0.88   0.80  0.79 0.078 
##  2 se_y_w - rel_weight   -0.53 -0.40  -0.47 -0.47 0.073 
##  3 se_x_w - rel_weight   -0.53 -0.35  -0.43 -0.43 0.072 
##  4 rhos_max - fungis_max  0.47  0.48   0.47  0.48 0.0040
##  5 se_x_w - rel_n_w      -0.46 -0.36  -0.44 -0.42 0.047 
##  6 se_y_w - rel_n_w      -0.37 -0.36  -0.36 -0.36 0.0077
##  7 rhos_max - sd_emp_inv  0.35  0.35   0.35  0.35 0.0012
##  8 rel_weight - rel_n_w   0.34  0.35   0.35  0.35 0.0011
##  9 rel_n_w - p_fit_x     -0.32 -0.17  -0.27 -0.27 0.054 
## 10 rhos_max - p_hetero   -0.30 -0.29  -0.30 -0.30 0.0024
## # ... with 35 more rows

The following table lists the correlation ordered by largest absolute maximum:

## # A tibble: 45 x 6
##    corr                    min   max median  mean     sd
##    <fct>                 <dbl> <dbl>  <dbl> <dbl>  <dbl>
##  1 se_x_w - se_y_w        0.66  0.88   0.80  0.79 0.078 
##  2 se_y_w - sd_emp_inv    0.15  0.51   0.32  0.32 0.20  
##  3 se_x_w - sd_emp_inv    0.15  0.50   0.37  0.36 0.15  
##  4 rhos_max - fungis_max  0.47  0.48   0.47  0.48 0.0040
##  5 se_y_w - rel_weight   -0.53 -0.40  -0.47 -0.47 0.073 
##  6 se_x_w - rel_n_w      -0.46 -0.36  -0.44 -0.42 0.047 
##  7 se_y_w - rel_n_w      -0.37 -0.36  -0.36 -0.36 0.0077
##  8 rhos_max - sd_emp_inv  0.35  0.35   0.35  0.35 0.0012
##  9 se_x_w - rel_weight   -0.53 -0.35  -0.43 -0.43 0.072 
## 10 rel_weight - rel_n_w   0.34  0.35   0.35  0.35 0.0011
## # ... with 35 more rows

The following table lists the correlation ordered by largest absolute median:

## # A tibble: 45 x 6
##    corr                       min   max median  mean      sd
##    <fct>                    <dbl> <dbl>  <dbl> <dbl>   <dbl>
##  1 se_x_w - se_y_w          0.66   0.88   0.80  0.79 0.078  
##  2 rhos_max - fungis_max    0.47   0.48   0.47  0.48 0.0040 
##  3 se_y_w - rel_weight     -0.53  -0.40  -0.47 -0.47 0.073  
##  4 se_x_w - rel_n_w        -0.46  -0.36  -0.44 -0.42 0.047  
##  5 se_x_w - rel_weight     -0.53  -0.35  -0.43 -0.43 0.072  
##  6 se_x_w - sd_emp_inv      0.15   0.50   0.37  0.36 0.15   
##  7 se_y_w - rel_n_w        -0.37  -0.36  -0.36 -0.36 0.0077 
##  8 rhos_max - sd_emp_inv    0.35   0.35   0.35  0.35 0.0012 
##  9 rel_weight - rel_n_w     0.34   0.35   0.35  0.35 0.0011 
## 10 se_y_w - sd_emp_inv      0.15   0.51   0.32  0.32 0.20   
## 11 rhos_max - p_hetero     -0.30  -0.29  -0.30 -0.30 0.0024 
## 12 fungis_max - rel_weight -0.29  -0.29  -0.29 -0.29 0.00060
## 13 rel_n_w - p_fit_x       -0.32  -0.17  -0.27 -0.27 0.054  
## 14 sd_emp_inv - p_hetero   -0.23  -0.23  -0.23 -0.23 0.0040 
## 15 rel_weight - p_hetero    0.19   0.20   0.20  0.20 0.0067 
## 16 y - rel_weight           0.19   0.19   0.19  0.19 0.0011 
## 17 se_y_w - y              -0.23  -0.10  -0.17 -0.17 0.071  
## 18 se_x_w - p_fit_x         0.044  0.18   0.16  0.14 0.054  
## 19 rel_n_w - p_hetero      -0.16  -0.16  -0.16 -0.16 0.0019 
## 20 rhos_max - rel_n_w       0.14   0.14   0.14  0.14 0.00052
## # ... with 25 more rows
…
