Univariate Relationships with Absolute Deviation
…
The following table lists the correlation ordered by largest absolute minimum:

## # A tibble: 45 x 6
##    corr                     min    max median   mean     sd
##    <fct>                  <dbl>  <dbl>  <dbl>  <dbl>  <dbl>
##  1 se_x_w - se_y_w         0.62  0.93    0.77  0.76  0.096 
##  2 fungi_max - rel_weight -0.50 -0.43   -0.44 -0.44  0.022 
##  3 se_x_w - rel_weight    -0.50 -0.33   -0.40 -0.40  0.067 
##  4 se_y_w - rel_weight    -0.47 -0.39   -0.43 -0.44  0.027 
##  5 se_x_w - rel_n_w       -0.43 -0.34   -0.38 -0.38  0.031 
##  6 rel_weight - rel_n_w    0.41  0.43    0.42  0.42  0.0047
##  7 fungi_max - rho_med     0.40  0.41    0.41  0.41  0.0038
##  8 rel_n_w - p_fit_x      -0.38  0.049  -0.25 -0.21  0.15  
##  9 se_y_w - rel_n_w       -0.37 -0.33   -0.35 -0.36  0.017 
## 10 fungi_max - p_fit_x    -0.30  0.20    0.14  0.082 0.17  
## # ... with 35 more rows

The following table lists the correlation ordered by largest absolute maximum:

## # A tibble: 45 x 6
##    corr                      min   max median  mean     sd
##    <fct>                   <dbl> <dbl>  <dbl> <dbl>  <dbl>
##  1 se_x_w - se_y_w         0.62   0.93   0.77  0.76 0.096 
##  2 se_y_w - sd_emp_inv     0.087  0.49   0.28  0.30 0.18  
##  3 se_x_w - sd_emp_inv     0.13   0.47   0.40  0.34 0.13  
##  4 rel_weight - rel_n_w    0.41   0.43   0.42  0.42 0.0047
##  5 fungi_max - rel_weight -0.50  -0.43  -0.44 -0.44 0.022 
##  6 fungi_max - rho_med     0.40   0.41   0.41  0.41 0.0038
##  7 se_y_w - rel_weight    -0.47  -0.39  -0.43 -0.44 0.027 
##  8 se_y_w - fungi_max      0.15   0.39   0.28  0.24 0.086 
##  9 se_x_w - rel_n_w       -0.43  -0.34  -0.38 -0.38 0.031 
## 10 se_y_w - rel_n_w       -0.37  -0.33  -0.35 -0.36 0.017 
## # ... with 35 more rows

The following table lists the correlation ordered by largest absolute median:

## # A tibble: 45 x 6
##    corr                      min    max median  mean     sd
##    <fct>                   <dbl>  <dbl>  <dbl> <dbl>  <dbl>
##  1 se_x_w - se_y_w         0.62   0.93    0.77  0.76 0.096 
##  2 fungi_max - rel_weight -0.50  -0.43   -0.44 -0.44 0.022 
##  3 se_y_w - rel_weight    -0.47  -0.39   -0.43 -0.44 0.027 
##  4 rel_weight - rel_n_w    0.41   0.43    0.42  0.42 0.0047
##  5 fungi_max - rho_med     0.40   0.41    0.41  0.41 0.0038
##  6 se_x_w - sd_emp_inv     0.13   0.47    0.40  0.34 0.13  
##  7 se_x_w - rel_weight    -0.50  -0.33   -0.40 -0.40 0.067 
##  8 se_x_w - rel_n_w       -0.43  -0.34   -0.38 -0.38 0.031 
##  9 se_y_w - rel_n_w       -0.37  -0.33   -0.35 -0.36 0.017 
## 10 sd_emp_inv - rho_med    0.30   0.33    0.30  0.30 0.0097
## 11 se_y_w - sd_emp_inv     0.087  0.49    0.28  0.30 0.18  
## 12 se_y_w - fungi_max      0.15   0.39    0.28  0.24 0.086 
## 13 rel_n_w - p_fit_x      -0.38   0.049  -0.25 -0.21 0.15  
## 14 rho_med - p_hetero     -0.24  -0.23   -0.24 -0.23 0.0038
## 15 se_x_w - fungi_max      0.055  0.32    0.23  0.20 0.12  
## 16 rel_weight - p_hetero   0.22   0.24    0.23  0.23 0.0071
## 17 sd_emp_inv - p_hetero  -0.22  -0.20   -0.21 -0.21 0.0058
## 18 rel_weight - rho_med   -0.23  -0.20   -0.21 -0.21 0.0098
## 19 fungi_max - y          -0.20  -0.17   -0.19 -0.18 0.010 
## 20 rel_weight - y          0.15   0.18    0.17  0.16 0.011 
## # ... with 25 more rows
…
The following table lists the correlation ordered by largest absolute minimum:

## # A tibble: 45 x 6
##    corr                     min   max median  mean      sd
##    <fct>                  <dbl> <dbl>  <dbl> <dbl>   <dbl>
##  1 se_x_w - se_y_w         0.63  0.86   0.75  0.75 0.088  
##  2 se_x_w - rel_weight    -0.47 -0.34  -0.45 -0.42 0.065  
##  3 se_y_w - rel_weight    -0.47 -0.41  -0.44 -0.44 0.028  
##  4 fungi_max - rel_weight -0.44 -0.43  -0.44 -0.44 0.0058 
##  5 se_x_w - rel_n_w       -0.43 -0.34  -0.43 -0.40 0.037  
##  6 rel_weight - rel_n_w    0.42  0.42   0.42  0.42 0.0021 
##  7 fungi_max - rho_med     0.41  0.41   0.41  0.41 0.0028 
##  8 se_y_w - rel_n_w       -0.37 -0.34  -0.36 -0.36 0.017  
##  9 rel_n_w - p_fit_x      -0.34 -0.15  -0.25 -0.25 0.091  
## 10 sd_emp_inv - rho_med    0.30  0.30   0.30  0.30 0.00065
## # ... with 35 more rows

The following table lists the correlation ordered by largest absolute maximum:

## # A tibble: 45 x 6
##    corr                     min   max median  mean     sd
##    <fct>                  <dbl> <dbl>  <dbl> <dbl>  <dbl>
##  1 se_x_w - se_y_w         0.63  0.86   0.75  0.75 0.088 
##  2 se_y_w - sd_emp_inv     0.13  0.48   0.30  0.30 0.19  
##  3 se_x_w - sd_emp_inv     0.13  0.47   0.35  0.34 0.15  
##  4 fungi_max - rel_weight -0.44 -0.43  -0.44 -0.44 0.0058
##  5 rel_weight - rel_n_w    0.42  0.42   0.42  0.42 0.0021
##  6 fungi_max - rho_med     0.41  0.41   0.41  0.41 0.0028
##  7 se_y_w - rel_weight    -0.47 -0.41  -0.44 -0.44 0.028 
##  8 se_y_w - rel_n_w       -0.37 -0.34  -0.36 -0.36 0.017 
##  9 se_x_w - rel_n_w       -0.43 -0.34  -0.43 -0.40 0.037 
## 10 se_x_w - rel_weight    -0.47 -0.34  -0.45 -0.42 0.065 
## # ... with 35 more rows

The following table lists the correlation ordered by largest absolute median:

## # A tibble: 45 x 6
##    corr                      min   max median  mean      sd
##    <fct>                   <dbl> <dbl>  <dbl> <dbl>   <dbl>
##  1 se_x_w - se_y_w         0.63   0.86   0.75  0.75 0.088  
##  2 se_x_w - rel_weight    -0.47  -0.34  -0.45 -0.42 0.065  
##  3 se_y_w - rel_weight    -0.47  -0.41  -0.44 -0.44 0.028  
##  4 fungi_max - rel_weight -0.44  -0.43  -0.44 -0.44 0.0058 
##  5 se_x_w - rel_n_w       -0.43  -0.34  -0.43 -0.40 0.037  
##  6 rel_weight - rel_n_w    0.42   0.42   0.42  0.42 0.0021 
##  7 fungi_max - rho_med     0.41   0.41   0.41  0.41 0.0028 
##  8 se_y_w - rel_n_w       -0.37  -0.34  -0.36 -0.36 0.017  
##  9 se_x_w - sd_emp_inv     0.13   0.47   0.35  0.34 0.15   
## 10 se_y_w - sd_emp_inv     0.13   0.48   0.30  0.30 0.19   
## 11 sd_emp_inv - rho_med    0.30   0.30   0.30  0.30 0.00065
## 12 rel_n_w - p_fit_x      -0.34  -0.15  -0.25 -0.25 0.091  
## 13 rho_med - p_hetero     -0.24  -0.24  -0.24 -0.24 0.0012 
## 14 se_y_w - fungi_max      0.15   0.31   0.23  0.23 0.085  
## 15 se_x_w - fungi_max      0.087  0.32   0.23  0.21 0.12   
## 16 rel_weight - p_hetero   0.22   0.23   0.23  0.22 0.0044 
## 17 sd_emp_inv - p_hetero  -0.21  -0.20  -0.21 -0.21 0.0038 
## 18 rel_weight - rho_med   -0.21  -0.20  -0.21 -0.21 0.0014 
## 19 fungi_max - y          -0.19  -0.17  -0.18 -0.18 0.010  
## 20 rel_weight - y          0.15   0.17   0.17  0.16 0.0088 
## # ... with 25 more rows
…
